{
    "16afcd53-3fee-df8f-45a9-647e198127b4": {
        "paletteKey": "FlexLayoutCol",
        "designerReference": [
            {
                "0": true,
                "_key": "style",
                "_value": "",
                "_type": "kv",
                "_attrDef": "p"
            },
            {
                "1": false,
                "_key": "class",
                "_value": "",
                "_type": "kv",
                "_attrDef": "p"
            },
            {
                "2": false,
                "_key": "fxFlex",
                "_value": "",
                "_type": "kv",
                "_attrDef": "p"
            },
            {
                "3": false,
                "_key": "wrap",
                "_value": "",
                "_type": "a",
                "_attrDef": "p"
            },
            {
                "_key": "fxLayoutGap",
                "_value": "",
                "_type": "kv",
                "_attrDef": "p"
            },
            {
                "5": false,
                "_key": "layoutAlign",
                "_value": "",
                "_type": "a",
                "_attrDef": "p"
            },
            {
                "6": false,
                "_key": "fxShow",
                "_value": "false",
                "_type": "kv",
                "_attrDef": "p"
            },
            {
                "7": false,
                "_key": "fxHide",
                "_value": "false",
                "_type": "kv",
                "_attrDef": "p"
            },
            {
                "_key": "pLayoutAlign",
                "_value": "",
                "_type": "a",
                "_attrDef": "p"
            },
            {
                "_key": "*ngIf",
                "_value": "true",
                "_type": "kv",
                "_attrDef": "c"
            }
        ],
        "bf2fa72e-bd69-c67e-f7cb-6f57932023c3": {
            "paletteKey": "FlexLayoutRow",
            "designerReference": [
                {
                    "0": false,
                    "_key": "style",
                    "_value": "",
                    "_type": "kv",
                    "_attrDef": "p"
                },
                {
                    "1": false,
                    "_key": "class",
                    "_value": "",
                    "_type": "kv",
                    "_attrDef": "p"
                },
                {
                    "2": false,
                    "_key": "fxFlex",
                    "_value": "100",
                    "_type": "kv",
                    "_attrDef": "p"
                },
                {
                    "3": false,
                    "_key": "wrap",
                    "_value": "",
                    "_type": "a",
                    "_attrDef": "p"
                },
                {
                    "4": false,
                    "_key": "fxLayoutGap",
                    "_value": "",
                    "_type": "kv",
                    "_attrDef": "p"
                },
                {
                    "6": false,
                    "_key": "fxShow",
                    "_value": "true",
                    "_type": "kv",
                    "_attrDef": "p"
                },
                {
                    "7": false,
                    "_key": "fxHide",
                    "_value": "false",
                    "_type": "kv",
                    "_attrDef": "p"
                },
                {
                    "8": false,
                    "9": false,
                    "_key": "*ngIf",
                    "_value": "true",
                    "_type": "kv",
                    "_attrDef": "c"
                },
                {
                    "_key": "layoutAlign",
                    "_value": "space-around",
                    "_type": "a",
                    "_attrDef": "p"
                },
                {
                    "_key": "pLayoutAlign",
                    "_value": "start",
                    "_type": "a",
                    "_attrDef": "p"
                },
                {
                    "_key": "ngClass.gt-xs",
                    "_value": "carrow",
                    "_type": "kv",
                    "_attrDef": "c"
                },
                {
                    "_key": "ngClass.xs",
                    "_value": "small-fab",
                    "_type": "kv",
                    "_attrDef": "c"
                }
            ],
            "90c0c9f4-0647-6462-2215-f9c311fd842e": {
                "paletteKey": "FlexLayoutCol",
                "designerReference": [
                    {
                        "0": false,
                        "_key": "style",
                        "_value": "",
                        "_type": "kv",
                        "_attrDef": "p"
                    },
                    {
                        "1": false,
                        "_key": "class",
                        "_value": "icon-col-height",
                        "_type": "kv",
                        "_attrDef": "p"
                    },
                    {
                        "2": false,
                        "_key": "fxFlex",
                        "_value": "5",
                        "_type": "kv",
                        "_attrDef": "p"
                    },
                    {
                        "3": false,
                        "_key": "wrap",
                        "_value": "",
                        "_type": "a",
                        "_attrDef": "p"
                    },
                    {
                        "4": false,
                        "_key": "fxLayoutGap",
                        "_value": "",
                        "_type": "kv",
                        "_attrDef": "p"
                    },
                    {
                        "6": false,
                        "_key": "fxShow",
                        "_value": "true",
                        "_type": "kv",
                        "_attrDef": "p"
                    },
                    {
                        "7": false,
                        "_key": "fxHide",
                        "_value": "false",
                        "_type": "kv",
                        "_attrDef": "p"
                    },
                    {
                        "_key": "layoutAlign",
                        "_value": "center",
                        "_type": "a",
                        "_attrDef": "p"
                    },
                    {
                        "_key": "pLayoutAlign",
                        "_value": "center",
                        "_type": "a",
                        "_attrDef": "p"
                    },
                    {
                        "_key": "fxFlex.xs",
                        "_value": "8",
                        "_type": "kv",
                        "_attrDef": "c"
                    }
                ],
                "3c67ac3c-f4c3-e563-916f-292dd734c878": {
                    "paletteKey": "NG-MiniFabButton",
                    "designerReference": [
                        {
                            "0": false,
                            "_key": "style",
                            "_value": "",
                            "_type": "kv",
                            "_attrDef": "p"
                        },
                        {
                            "1": false,
                            "_key": "class",
                            "_value": "arrow-color",
                            "_type": "kv",
                            "_attrDef": "p"
                        },
                        {
                            "2": false,
                            "_key": "fabicon",
                            "_value": "<mat-icon>keyboard_arrow_left</mat-icon>",
                            "_type": "a",
                            "_attrDef": "p"
                        },
                        {
                            "_key": "color",
                            "_value": "",
                            "_type": "kv",
                            "_attrDef": "p"
                        },
                        {
                            "4": false,
                            "_key": "(click)",
                            "_value": "changeDataSet(-1)",
                            "_type": "kv",
                            "_attrDef": "p"
                        }
                    ]
                }
            },
            "275b68bb-516d-e4ce-ad24-83ff1f26b348": {
                "paletteKey": "FlexLayoutCol",
                "designerReference": [
                    {
                        "0": false,
                        "_key": "style",
                        "_value": "",
                        "_type": "kv",
                        "_attrDef": "p"
                    },
                    {
                        "1": false,
                        "_key": "class",
                        "_value": "",
                        "_type": "kv",
                        "_attrDef": "p"
                    },
                    {
                        "2": false,
                        "_key": "fxFlex",
                        "_value": "90",
                        "_type": "kv",
                        "_attrDef": "p"
                    },
                    {
                        "3": false,
                        "_key": "wrap",
                        "_value": "",
                        "_type": "a",
                        "_attrDef": "p"
                    },
                    {
                        "4": false,
                        "_key": "fxLayoutGap",
                        "_value": "",
                        "_type": "kv",
                        "_attrDef": "p"
                    },
                    {
                        "5": false,
                        "_key": "layoutAlign",
                        "_value": "",
                        "_type": "a",
                        "_attrDef": "p"
                    },
                    {
                        "6": false,
                        "_key": "fxShow",
                        "_value": "true",
                        "_type": "kv",
                        "_attrDef": "p"
                    },
                    {
                        "7": false,
                        "_key": "fxHide",
                        "_value": "false",
                        "_type": "kv",
                        "_attrDef": "p"
                    },
                    {
                        "8": false,
                        "_key": "*ngFor",
                        "_value": "let row of dataSet.slice(0,limitImage);let i=index;",
                        "_type": "kv",
                        "_attrDef": "c"
                    },
                    {
                        "_key": "pLayoutAlign",
                        "_value": "",
                        "_type": "a",
                        "_attrDef": "p"
                    },
                    {
                        "_key": "fxFlex.xs",
                        "_value": "84",
                        "_type": "kv",
                        "_attrDef": "c"
                    }
                ],
                "4b66ece1-bdcf-6d82-8460-27d5bb867872": {
                    "paletteKey": "FlexLayoutCol",
                    "designerReference": [
                        {
                            "0": false,
                            "_key": "style",
                            "_value": "",
                            "_type": "kv",
                            "_attrDef": "p"
                        },
                        {
                            "1": false,
                            "_key": "class",
                            "_value": "",
                            "_type": "kv",
                            "_attrDef": "p"
                        },
                        {
                            "2": false,
                            "_key": "fxFlex",
                            "_value": "100",
                            "_type": "kv",
                            "_attrDef": "p"
                        },
                        {
                            "3": false,
                            "_key": "wrap",
                            "_value": "",
                            "_type": "a",
                            "_attrDef": "p"
                        },
                        {
                            "4": false,
                            "_key": "fxLayoutGap",
                            "_value": "",
                            "_type": "kv",
                            "_attrDef": "p"
                        },
                        {
                            "6": false,
                            "_key": "fxShow",
                            "_value": "true",
                            "_type": "kv",
                            "_attrDef": "p"
                        },
                        {
                            "7": false,
                            "_key": "fxHide",
                            "_value": "false",
                            "_type": "kv",
                            "_attrDef": "p"
                        },
                        {
                            "_key": "layoutAlign",
                            "_value": "center",
                            "_type": "a",
                            "_attrDef": "p"
                        },
                        {
                            "_key": "pLayoutAlign",
                            "_value": "center",
                            "_type": "a",
                            "_attrDef": "p"
                        },
                        {
                            "_key": "fxFlex.lt-sm",
                            "_value": "50",
                            "_type": "kv",
                            "_attrDef": "c"
                        },
                        {
                            "_key": "fxLayoutAlign.xs",
                            "_value": "center center",
                            "_type": "kv",
                            "_attrDef": "c"
                        }
                    ],
                    "f0a81928-5cc5-d48e-03b5-9edbef367416": {
                        "paletteKey": "NG-image",
                        "designerReference": [
                            {
                                "_key": "style",
                                "_value": "",
                                "_type": "kv",
                                "_attrDef": "p"
                            },
                            {
                                "_key": "class",
                                "_value": "carousel-img",
                                "_type": "kv",
                                "_attrDef": "p"
                            },
                            {
                                "_key": "imgSrc",
                                "_value": "{{row.imgSrc}}",
                                "_type": "kv",
                                "_attrDef": "p"
                            },
                            {
                                "_key": "alt",
                                "_value": "",
                                "_type": "kv",
                                "_attrDef": "p"
                            },
                            {
                                "_key": "[ngStyle.lt-lg]",
                                "_value": "{'width':'90%'}",
                                "_type": "kv",
                                "_attrDef": "c"
                            }
                        ]
                    },
                    "233d3001-e13b-86d2-ab1d-e93847c56f89": {
                        "paletteKey": "FlexLayoutCol",
                        "designerReference": [
                            {
                                "0": false,
                                "_key": "style",
                                "_value": "",
                                "_type": "kv",
                                "_attrDef": "p"
                            },
                            {
                                "1": false,
                                "_key": "class",
                                "_value": "",
                                "_type": "kv",
                                "_attrDef": "p"
                            },
                            {
                                "2": false,
                                "_key": "fxFlex",
                                "_value": "20",
                                "_type": "kv",
                                "_attrDef": "p"
                            },
                            {
                                "_key": "wrap",
                                "_value": "",
                                "_type": "a",
                                "_attrDef": "p"
                            },
                            {
                                "4": false,
                                "_key": "fxLayoutGap",
                                "_value": "",
                                "_type": "kv",
                                "_attrDef": "p"
                            },
                            {
                                "_key": "layoutAlign",
                                "_value": "start",
                                "_type": "a",
                                "_attrDef": "p"
                            },
                            {
                                "6": false,
                                "_key": "fxShow",
                                "_value": "true",
                                "_type": "kv",
                                "_attrDef": "p"
                            },
                            {
                                "_key": "fxHide",
                                "_value": "false",
                                "_type": "kv",
                                "_attrDef": "p"
                            },
                            {
                                "_key": "pLayoutAlign",
                                "_value": "center",
                                "_type": "a",
                                "_attrDef": "p"
                            }
                        ],
                        "fb9694b6-0931-68e0-7d1e-205da05e26a9": {
                            "paletteKey": "NG-H4",
                            "designerReference": [
                                {
                                    "0": false,
                                    "_key": "style",
                                    "_value": "",
                                    "_type": "kv",
                                    "_attrDef": "p"
                                },
                                {
                                    "1": false,
                                    "_key": "class",
                                    "_value": "price-font",
                                    "_type": "kv",
                                    "_attrDef": "p"
                                },
                                {
                                    "2": false,
                                    "_key": "H4 Text",
                                    "_value": "{{row.imgPrice}}",
                                    "_type": "a",
                                    "_attrDef": "p"
                                }
                            ]
                        },
                        "6d169de8-29d1-2f3a-6e11-3ddb34b13933": {
                            "paletteKey": "NG-H4",
                            "designerReference": [
                                {
                                    "_key": "style",
                                    "_value": "",
                                    "_type": "kv",
                                    "_attrDef": "p"
                                },
                                {
                                    "_key": "class",
                                    "_value": "top  header-margin",
                                    "_type": "kv",
                                    "_attrDef": "p"
                                },
                                {
                                    "_key": "H4 Text",
                                    "_value": "{{row.imgHeader}}",
                                    "_type": "a",
                                    "_attrDef": "p"
                                }
                            ]
                        },
                        "ecbd15ae-f0e3-49b7-a45a-d79bea080576": {
                            "paletteKey": "NG-H4",
                            "designerReference": [
                                {
                                    "_key": "style",
                                    "_value": "",
                                    "_type": "kv",
                                    "_attrDef": "p"
                                },
                                {
                                    "_key": "class",
                                    "_value": "bottom",
                                    "_type": "kv",
                                    "_attrDef": "p"
                                },
                                {
                                    "_key": "H4 Text",
                                    "_value": "{{row.imgDesc}}",
                                    "_type": "a",
                                    "_attrDef": "p"
                                }
                            ]
                        }
                    }
                }
            },
            "90b7c92b-ccd0-72d9-2646-09474e546782": {
                "paletteKey": "FlexLayoutCol",
                "designerReference": [
                    {
                        "0": false,
                        "_key": "style",
                        "_value": "",
                        "_type": "kv",
                        "_attrDef": "p"
                    },
                    {
                        "1": false,
                        "_key": "class",
                        "_value": "icon-col-height",
                        "_type": "kv",
                        "_attrDef": "p"
                    },
                    {
                        "2": false,
                        "_key": "fxFlex",
                        "_value": "5",
                        "_type": "kv",
                        "_attrDef": "p"
                    },
                    {
                        "_key": "wrap",
                        "_value": "",
                        "_type": "a",
                        "_attrDef": "p"
                    },
                    {
                        "4": false,
                        "_key": "fxLayoutGap",
                        "_value": "",
                        "_type": "kv",
                        "_attrDef": "p"
                    },
                    {
                        "6": false,
                        "_key": "fxShow",
                        "_value": "true",
                        "_type": "kv",
                        "_attrDef": "p"
                    },
                    {
                        "_key": "fxHide",
                        "_value": "false",
                        "_type": "kv",
                        "_attrDef": "p"
                    },
                    {
                        "_key": "layoutAlign",
                        "_value": "center",
                        "_type": "a",
                        "_attrDef": "p"
                    },
                    {
                        "_key": "pLayoutAlign",
                        "_value": "center",
                        "_type": "a",
                        "_attrDef": "p"
                    },
                    {
                        "_key": "fxFlex.xs",
                        "_value": "8",
                        "_type": "kv",
                        "_attrDef": "c"
                    }
                ],
                "17f4e16d-573c-e960-137b-10dee4f851f2": {
                    "paletteKey": "NG-MiniFabButton",
                    "designerReference": [
                        {
                            "0": false,
                            "_key": "style",
                            "_value": "",
                            "_type": "kv",
                            "_attrDef": "p"
                        },
                        {
                            "1": false,
                            "_key": "class",
                            "_value": "arrow-color",
                            "_type": "kv",
                            "_attrDef": "p"
                        },
                        {
                            "2": false,
                            "_key": "fabicon",
                            "_value": "<mat-icon>keyboard_arrow_right</mat-icon>",
                            "_type": "a",
                            "_attrDef": "p"
                        },
                        {
                            "3": false,
                            "_key": "color",
                            "_value": "",
                            "_type": "kv",
                            "_attrDef": "p"
                        },
                        {
                            "4": false,
                            "_key": "(click)",
                            "_value": "changeDataSet(1)",
                            "_type": "kv",
                            "_attrDef": "p"
                        }
                    ]
                }
            }
        }
    }
}
